<svg xmlns="http://www.w3.org/2000/svg" xmlns:xlink="http://www.w3.org/1999/xlink" width="32.6" height="32.6" viewBox="0 0 32.6 32.6">
  <defs>
    <linearGradient id="linear-gradient" x1="0.5" x2="0.5" y2="1" gradientUnits="objectBoundingBox">
      <stop offset="0" stop-color="#6984ff"/>
      <stop offset="1" stop-color="#7b65d6"/>
    </linearGradient>
  </defs>
  <path id="ic_add_to_photos_24px" d="M5.26,8.52H2V31.34A3.27,3.27,0,0,0,5.26,34.6H28.08V31.34H5.26ZM31.34,2H11.78A3.27,3.27,0,0,0,8.52,5.26V24.82a3.27,3.27,0,0,0,3.26,3.26H31.34a3.27,3.27,0,0,0,3.26-3.26V5.26A3.27,3.27,0,0,0,31.34,2ZM29.71,16.67H23.19v6.52H19.93V16.67H13.41V13.41h6.52V6.89h3.26v6.52h6.52Z" transform="translate(-2 -2)" fill="url(#linear-gradient)"/>
</svg>
