<svg xmlns="http://www.w3.org/2000/svg" xmlns:xlink="http://www.w3.org/1999/xlink" width="15.9" height="15.9" viewBox="0 0 15.9 15.9">
  <defs>
    <linearGradient id="linear-gradient" x1="0.5" x2="0.5" y2="1" gradientUnits="objectBoundingBox">
      <stop offset="0" stop-color="#69bef7"/>
      <stop offset="1" stop-color="#7595f0"/>
    </linearGradient>
  </defs>
  <path id="ic_public_24px" d="M9.95,2A7.95,7.95,0,1,0,17.9,9.95,7.953,7.953,0,0,0,9.95,2ZM9.155,16.254A6.351,6.351,0,0,1,3.59,9.95a6.454,6.454,0,0,1,.167-1.423l3.808,3.808v.795a1.6,1.6,0,0,0,1.59,1.59Zm5.485-2.019a1.577,1.577,0,0,0-1.51-1.105h-.795V10.745a.8.8,0,0,0-.795-.795H6.77V8.36H8.36a.8.8,0,0,0,.795-.795V5.975h1.59a1.6,1.6,0,0,0,1.59-1.59V4.059A6.346,6.346,0,0,1,14.64,14.235Z" transform="translate(-2 -2)" fill="url(#linear-gradient)"/>
</svg>
