<svg id="Слой_2" data-name="Слой 2" xmlns="http://www.w3.org/2000/svg" width="17" height="12.065" viewBox="0 0 17 12.065">
  <g id="Слой_1" data-name="Слой 1" transform="translate(0)">
    <path id="Path_209" data-name="Path 209" d="M5.5,0A2.842,2.842,0,0,0,2.735,2.2H.653a.653.653,0,1,0,0,1.306H2.735a2.842,2.842,0,0,0,5.531,0h8.081a.653.653,0,1,0,0-1.306H8.266A2.842,2.842,0,0,0,5.5,0Zm0,4.394A1.536,1.536,0,1,1,7.037,2.858,1.536,1.536,0,0,1,5.5,4.394Z" transform="translate(0)" fill="#636161"/>
    <path id="Path_210" data-name="Path 210" d="M11.523,8.3a2.842,2.842,0,0,0-2.765,2.2H.653a.653.653,0,1,0,0,1.306H8.734a2.842,2.842,0,0,0,5.531,0h2.082a.653.653,0,0,0,0-1.306H14.265a2.842,2.842,0,0,0-2.742-2.2Zm0,4.379a1.536,1.536,0,1,1,1.536-1.536A1.536,1.536,0,0,1,11.523,12.679Z" transform="translate(0 -1.924)" fill="#636161"/>
  </g>
</svg>
