<svg xmlns="http://www.w3.org/2000/svg" width="217.352" height="130.873" viewBox="0 0 217.352 130.873">
  <g id="Group_2766" data-name="Group 2766" transform="translate(-84.356 -558.867)">
    <g id="Group_2765" data-name="Group 2765">
      <path id="Path_1670" data-name="Path 1670" d="M304.7,325.92s-19.973-25.312.285-56.771c18.785-29.172,47.865-15.176,66.2-41.954,46.449-67.847,145.6-15.687,130.725,41.972-7.2,27.9,21.91,28.921,7.077,56.812Z" transform="translate(-211.555 363.761)" fill="#ebf3fa"/>
      <g id="Membership" transform="translate(150.346 572.69)">
        <path id="Path_2102" data-name="Path 2102" d="M240.439,105.918c-3.561,14.057-11.538,10.749-27.2,27.81-3.969,4.325-15.631,13.9-28,13.9-13.028,0-16.349-5.685-25.654-12.4-7.233-5.219-22.546-1.807-29.61-13.08-5.886-9.4,1.943-20.221,2.1-30.433.13-8.45-7.673-21.892-3.743-30.5,7.051-15.417,17.573-12.866,29.688-18.13,9.065-3.937,14.187-12.471,25.253-12.471,11.461,0,9.784,9.751,24.793,12.173,15.825,2.558,21.976,2.843,24.314,26.437C233.977,85.178,243.145,95.247,240.439,105.918Z" transform="translate(-127.21 -30.61)" fill="#7a91c9"/>
        <circle id="Ellipse_401" data-name="Ellipse 401" cx="39.478" cy="39.478" r="39.478" transform="translate(15.398 18.878)" fill="#fff"/>
        <path id="Path_2103" data-name="Path 2103" d="M161.794,97.145h-.1a.512.512,0,0,1-.4-.6A33.184,33.184,0,0,1,219.376,81.7a.512.512,0,0,1-.783.648,32.168,32.168,0,0,0-56.3,14.387A.512.512,0,0,1,161.794,97.145Z" transform="translate(-139.215 -44.396)" fill="#73bbe8"/>
        <path id="Path_2104" data-name="Path 2104" d="M195.988,155.543a33.353,33.353,0,0,1-28.574-16.324.512.512,0,1,1,.881-.518,32.168,32.168,0,0,0,59.687-13.28.512.512,0,1,1,1.017.1,33.184,33.184,0,0,1-33.023,30.031Z" transform="translate(-141.345 -63.853)" fill="#73bbe8"/>
        <path id="Path_2105" data-name="Path 2105" d="M186.081,103.174a.5.5,0,0,1-.227-.052.512.512,0,0,1-.233-.686,18.778,18.778,0,0,1,27.609-6.987.512.512,0,1,1-.589.835,17.735,17.735,0,0,0-26.107,6.6A.511.511,0,0,1,186.081,103.174Z" transform="translate(-147.774 -52.257)" fill="#73bbe8"/>
        <path id="Path_2106" data-name="Path 2106" d="M203.77,142.217a18.726,18.726,0,0,1-14.29-6.611.512.512,0,0,1,.777-.648,17.729,17.729,0,0,0,30.53-6.475.512.512,0,1,1,.978.285A18.842,18.842,0,0,1,203.77,142.217Z" transform="translate(-149.127 -64.96)" fill="#73bbe8"/>
        <text id="Membership-2" data-name="Membership" transform="matrix(0.974, -0.227, 0.227, 0.974, 23.267, 69.176)" fill="#394c81" font-size="13" font-family="Impact"><tspan x="0" y="0">Membership</tspan></text>
        <path id="Path_2107" data-name="Path 2107" d="M187.6,89.922l-3.147-5.329a.576.576,0,0,1,.207-.79h0l2.933-1.729a.583.583,0,0,1,.589,1l-2.454,1.444.991,1.632,2.111-1.243a.583.583,0,0,1,.589,1l-2.1,1.269,1.295,2.169a.583.583,0,0,1-.214.8.576.576,0,0,1-.8-.227Z" transform="translate(-147.355 -48.725)" fill="#231f20"/>
        <path id="Path_2108" data-name="Path 2108" d="M198.41,82.011a.557.557,0,0,1-.337.712,1,1,0,0,0-.524.395,1.58,1.58,0,0,0-.285.647,3.237,3.237,0,0,0-.11.971l.647,1.878a.57.57,0,0,1-.356.719.557.557,0,0,1-.712-.337l-1.379-3.885a.55.55,0,0,1,.343-.7.563.563,0,0,1,.725.324v.071a1.366,1.366,0,0,1,.136-.272,2.3,2.3,0,0,1,1.146-.855.544.544,0,0,1,.706.33Z" transform="translate(-151.213 -48.597)" fill="#231f20"/>
        <path id="Path_2109" data-name="Path 2109" d="M202.091,83.232a2.59,2.59,0,0,1,2.137-2.979,2.512,2.512,0,0,1,2.862,2.027v.052a.291.291,0,0,1,0,.1.505.505,0,0,1-.479.5l-3.3.5a1.379,1.379,0,0,0,.46.648,1.625,1.625,0,0,0,1.068.317,1.716,1.716,0,0,0,1.068-.427.6.6,0,0,1,.771-.149.479.479,0,0,1,.1.648,2.648,2.648,0,0,1-1.755.965A2.59,2.59,0,0,1,202.091,83.232Zm1.055-.648,2.933-.447a1.716,1.716,0,0,0-1.7-.868,1.463,1.463,0,0,0-1.23,1.282Z" transform="translate(-153.586 -48.095)" fill="#231f20"/>
        <path id="Path_2110" data-name="Path 2110" d="M212.214,82.339a2.59,2.59,0,0,1,2.8-2.344,2.512,2.512,0,0,1,2.292,2.661v.052a.284.284,0,0,1,0,.091.505.505,0,0,1-.583.369l-3.354-.337a1.379,1.379,0,0,0,.291.725,1.625,1.625,0,0,0,.958.563,1.716,1.716,0,0,0,1.114-.162.6.6,0,0,1,.79.039.479.479,0,0,1-.065.647,2.655,2.655,0,0,1-1.943.512A2.59,2.59,0,0,1,212.214,82.339Zm1.185-.408,2.959.278a1.716,1.716,0,0,0-1.444-1.256,1.463,1.463,0,0,0-1.515.984Z" transform="translate(-157.163 -48.011)" fill="#231f20"/>
        <path id="Path_2111" data-name="Path 2111" d="M186.881,151.086a.337.337,0,0,1,.434.2,2.111,2.111,0,0,0,.822,1.055,1.392,1.392,0,0,0,.822.2.583.583,0,0,0,.473-.265.376.376,0,0,0,.052-.207.647.647,0,0,0-.071-.265,2.59,2.59,0,0,0-.615-.706h0a3.51,3.51,0,0,1-.6-.647,1.392,1.392,0,0,1-.265-.738.984.984,0,0,1,.136-.531,1.2,1.2,0,0,1,.926-.557,1.943,1.943,0,0,1,1.12.24,2.538,2.538,0,0,1,.958,1.159.33.33,0,0,1-.155.44.324.324,0,0,1-.447-.149,1.878,1.878,0,0,0-.693-.881,1.237,1.237,0,0,0-.738-.175.518.518,0,0,0-.421.227.317.317,0,0,0-.052.181.609.609,0,0,0,.065.233,2.227,2.227,0,0,0,.557.648h0a3.826,3.826,0,0,1,.647.686,1.509,1.509,0,0,1,.291.79,1.042,1.042,0,0,1-.142.557,1.25,1.25,0,0,1-.984.589,2.02,2.02,0,0,1-1.224-.285,2.8,2.8,0,0,1-1.107-1.392A.343.343,0,0,1,186.881,151.086Z" transform="translate(-148.16 -72.204)" fill="#231f20"/>
        <path id="Path_2112" data-name="Path 2112" d="M193.971,156.492a1.353,1.353,0,0,1-.647-1.781l.647-1.412a.35.35,0,0,1,.453-.175.343.343,0,0,1,.175.453l-.647,1.412a.668.668,0,1,0,1.217.55l.647-1.412a.337.337,0,0,1,.447-.175.356.356,0,0,1,.181.453l-.648,1.412a1.366,1.366,0,0,1-1.826.673Z" transform="translate(-150.465 -73.783)" fill="#231f20"/>
        <path id="Path_2113" data-name="Path 2113" d="M199.382,156.388h0l.771-2.48a.35.35,0,0,1,.648.214l-.363,1.159a1.528,1.528,0,0,1,.906,0,1.619,1.619,0,0,1-.971,3.089,1.58,1.58,0,0,1-.758-.531.348.348,0,0,1-.635-.278Zm.647.214a.913.913,0,0,0,.052.686.818.818,0,0,0,1.146.363.939.939,0,0,0,.389-1.237.842.842,0,0,0-.5-.434.829.829,0,0,0-.648.071.92.92,0,0,0-.414.55Z" transform="translate(-152.496 -74.009)" fill="#231f20"/>
        <path id="Path_2114" data-name="Path 2114" d="M205.936,159.6a.337.337,0,0,1,.486.032,1.185,1.185,0,0,0,.647.408.861.861,0,0,0,.453-.045.266.266,0,0,0,.149-.168.1.1,0,0,0,0-.065.194.194,0,0,0-.071-.091,1.5,1.5,0,0,0-.479-.272h0a2.46,2.46,0,0,1-.537-.291,1.075,1.075,0,0,1-.376-.447.783.783,0,0,1-.039-.421.913.913,0,0,1,.5-.648,1.392,1.392,0,0,1,.829-.1,1.664,1.664,0,0,1,.894.524.356.356,0,0,1,0,.492.343.343,0,0,1-.486,0,1.107,1.107,0,0,0-.544-.343.647.647,0,0,0-.4.045c-.091.045-.123.1-.129.129a.071.071,0,0,0,0,.052.181.181,0,0,0,.058.078,1.3,1.3,0,0,0,.44.233h0a2.338,2.338,0,0,1,.557.291,1.01,1.01,0,0,1,.382.46.836.836,0,0,1,.045.44.932.932,0,0,1-.531.648,1.47,1.47,0,0,1-.874.11,1.878,1.878,0,0,1-1.055-.647A.343.343,0,0,1,205.936,159.6Z" transform="translate(-154.912 -75.325)" fill="#231f20"/>
        <path id="Path_2115" data-name="Path 2115" d="M211.4,159.726a1.645,1.645,0,0,1,1.7-1.567,1.709,1.709,0,0,1,1.017.389.356.356,0,0,1,.052.479.343.343,0,0,1-.486.045,1.036,1.036,0,0,0-.609-.227.932.932,0,1,0-.065,1.858,1.049,1.049,0,0,0,.648-.188.35.35,0,0,1,.486.091.356.356,0,0,1-.091.479,1.781,1.781,0,0,1-1.042.3,1.638,1.638,0,0,1-1.612-1.664Z" transform="translate(-156.88 -75.567)" fill="#231f20"/>
        <path id="Path_2116" data-name="Path 2116" d="M219.754,158.059a.343.343,0,0,1-.3.382.647.647,0,0,0-.369.168.984.984,0,0,0-.259.343,2,2,0,0,0-.194.57l.155,1.224a.35.35,0,0,1-.311.382.343.343,0,0,1-.382-.3l-.317-2.532a.343.343,0,0,1,.3-.376.35.35,0,0,1,.395.291v.045a.841.841,0,0,1,.117-.142,1.418,1.418,0,0,1,.777-.35.337.337,0,0,1,.389.291Z" transform="translate(-159.128 -75.428)" fill="#231f20"/>
        <path id="Path_2117" data-name="Path 2117" d="M222.524,155.635a.35.35,0,1,1-.648.175l-.032-.13a.35.35,0,0,1,.253-.427.343.343,0,0,1,.427.253Zm.291,1.133.647,2.441a.343.343,0,0,1-.253.427.35.35,0,0,1-.427-.253l-.647-2.441a.35.35,0,0,1,.246-.434.343.343,0,0,1,.434.259Z" transform="translate(-160.557 -74.538)" fill="#231f20"/>
        <path id="Path_2118" data-name="Path 2118" d="M226.8,159.894l-1.023-2.253h0l-.531-1.166a.343.343,0,0,1,.168-.453.356.356,0,0,1,.434.1,1.638,1.638,0,0,1,.693-.609,1.606,1.606,0,0,1,2.1.829,1.586,1.586,0,0,1-.764,2.111,1.5,1.5,0,0,1-.9.117l.473,1.036a.363.363,0,0,1-.194.473.356.356,0,0,1-.453-.181Zm-.376-2.551a.861.861,0,0,0,.5.486.8.8,0,0,0,.647,0,.829.829,0,0,0,.44-.5.945.945,0,0,0-.039-.693,1,1,0,0,0-.5-.492.842.842,0,0,0-.647,0,.822.822,0,0,0-.453.5.906.906,0,0,0,.052.7Z" transform="translate(-161.749 -74.588)" fill="#231f20"/>
        <path id="Path_2119" data-name="Path 2119" d="M232.263,152.134a.363.363,0,0,1-.091.5l-.13.091,1.042,1.476a.356.356,0,0,1,.5.091.35.35,0,0,1-.084.5.719.719,0,0,1-1-.175l-1.049-1.47-.155.11a.356.356,0,0,1-.5-.084.35.35,0,0,1,.084-.5l.155-.11-.537-.771a.356.356,0,0,1,.091-.5.35.35,0,0,1,.5.084l.537.771.129-.091a.363.363,0,0,1,.512.078Z" transform="translate(-163.588 -73.122)" fill="#231f20"/>
        <path id="Path_2120" data-name="Path 2120" d="M233.991,149.239a.35.35,0,0,1,0,.5.356.356,0,0,1-.5-.039l-.091-.1a.35.35,0,0,1,.524-.46Zm.777.881,1.671,1.891a.35.35,0,1,1-.524.46l-1.671-1.891a.35.35,0,1,1,.524-.46Z" transform="translate(-164.611 -72.351)" fill="#231f20"/>
        <path id="Path_2121" data-name="Path 2121" d="M239.135,149.8a1.619,1.619,0,0,1-1.153-.421,1.671,1.671,0,0,1-.557-1.081,1.509,1.509,0,0,1,.369-1.159,1.425,1.425,0,0,1,1.081-.486,1.619,1.619,0,0,1,1.153.408,1.567,1.567,0,0,1,.557,1.094,1.431,1.431,0,0,1-.343,1.14A1.509,1.509,0,0,1,239.135,149.8Zm-.693-.978a1.049,1.049,0,0,0,.648.278.881.881,0,0,0,.647-.278.848.848,0,0,0,.214-.609.991.991,0,0,0-.35-.648.971.971,0,0,0-.647-.253.913.913,0,0,0-.576.285.939.939,0,0,0-.227.647A1.023,1.023,0,0,0,238.442,148.818Z" transform="translate(-166.051 -71.509)" fill="#231f20"/>
        <path id="Path_2122" data-name="Path 2122" d="M243.335,141.651l1.295.848a.343.343,0,0,1,.1.473.35.35,0,0,1-.473.1l-1.295-.848a.659.659,0,1,0-.725,1.1l1.3.848a.13.13,0,0,1,.045.045.356.356,0,0,1,.045.44.343.343,0,0,1-.473.1l-1.295-.848-.842-.55a.343.343,0,0,1-.1-.473.35.35,0,0,1,.343-.155,1.3,1.3,0,0,1,.207-.686A1.353,1.353,0,0,1,243.335,141.651Z" transform="translate(-167.266 -69.672)" fill="#231f20"/>
      </g>
    </g>
    <path id="Path_2138" data-name="Path 2138" d="M43.431,181.049l.262-.759.5.625a3.355,3.355,0,0,0,1.539,1.069l.759.262-.625.5a3.355,3.355,0,0,0-1.069,1.539l-.262.78L44,184.41a3.355,3.355,0,0,0-1.539-1.069l-.759-.262.625-.5A3.355,3.355,0,0,0,43.431,181.049Z" transform="translate(194.959 447.368)" fill="#ffcd02"/>
    <path id="Path_2139" data-name="Path 2139" d="M91.52,125.538l.15-.438.289.363a1.95,1.95,0,0,0,.9.652l.438.15-.363.289a1.95,1.95,0,0,0-.63.892l-.15.438-.31-.379a1.95,1.95,0,0,0-.892-.631l-.438-.15.363-.289a1.95,1.95,0,0,0,.647-.9Z" transform="translate(124.229 539.069)" fill="#ffcd02"/>
    <path id="Path_2140" data-name="Path 2140" d="M32.806,131.762l.438-1.272.834,1.069a5.637,5.637,0,0,0,2.586,1.827l1.272.438-1.069.834a5.637,5.637,0,0,0-1.827,2.586l-.438,1.272-.834-1.069a5.637,5.637,0,0,0-2.586-1.827l-1.272-.438,1.069-.834A5.637,5.637,0,0,0,32.806,131.762Z" transform="translate(145.449 489.559)" fill="#ffcd02"/>
    <path id="Path_2141" data-name="Path 2141" d="M43.431,181.049l.262-.759.5.625a3.355,3.355,0,0,0,1.539,1.069l.759.262-.625.5a3.355,3.355,0,0,0-1.069,1.539l-.262.78L44,184.41a3.355,3.355,0,0,0-1.539-1.069l-.759-.262.625-.5A3.355,3.355,0,0,0,43.431,181.049Z" transform="translate(141.959 465.368)" fill="#ffcd02"/>
    <path id="Path_2142" data-name="Path 2142" d="M43.431,181.049l.262-.759.5.625a3.355,3.355,0,0,0,1.539,1.069l.759.262-.625.5a3.355,3.355,0,0,0-1.069,1.539l-.262.78L44,184.41a3.355,3.355,0,0,0-1.539-1.069l-.759-.262.625-.5A3.355,3.355,0,0,0,43.431,181.049Z" transform="translate(221.959 417.368)" fill="#ffcd02"/>
    <path id="Path_2143" data-name="Path 2143" d="M91.52,125.538l.15-.438.289.363a1.95,1.95,0,0,0,.9.652l.438.15-.363.289a1.95,1.95,0,0,0-.63.892l-.15.438-.31-.379a1.95,1.95,0,0,0-.892-.631l-.438-.15.363-.289a1.95,1.95,0,0,0,.647-.9Z" transform="translate(39.229 503.069)" fill="#ffcd02"/>
    <path id="Path_2144" data-name="Path 2144" d="M32.806,131.762l.438-1.272.834,1.069a5.637,5.637,0,0,0,2.586,1.827l1.272.438-1.069.834a5.637,5.637,0,0,0-1.827,2.586l-.438,1.272-.834-1.069a5.637,5.637,0,0,0-2.586-1.827l-1.272-.438,1.069-.834A5.637,5.637,0,0,0,32.806,131.762Z" transform="translate(94.449 505.559)" fill="#ffcd02"/>
  </g>
</svg>
