<svg xmlns="http://www.w3.org/2000/svg" width="140" height="146" viewBox="0 0 140 146">
  <g id="Group_2672" data-name="Group 2672" transform="translate(-139 -207)">
    <path id="ic_phone_android_24px" d="M66.809,1H21.857C12.53,1,5,7.856,5,16.349V98.213c0,8.493,7.53,15.349,16.857,15.349H66.809c9.328,0,16.857-6.856,16.857-15.349V16.349C83.667,7.856,76.137,1,66.809,1ZM55.571,103.329H33.1V98.213H55.571ZM73.833,87.98h-59V16.349h59Z" transform="translate(163 228.438)" fill="#50d489"/>
    <g id="Group_2671" data-name="Group 2671">
      <g id="Group_497" data-name="Group 497" transform="translate(3 -1)">
        <ellipse id="Ellipse_233" data-name="Ellipse 233" cx="36.5" cy="38.5" rx="36.5" ry="38.5" transform="translate(203 208)" fill="#3598db" opacity="0.37"/>
        <circle id="Ellipse_232" data-name="Ellipse 232" cx="68.5" cy="68.5" r="68.5" transform="translate(136 217)" fill="#50d489" opacity="0.22"/>
      </g>
    </g>
  </g>
</svg>
