<svg xmlns="http://www.w3.org/2000/svg" width="271.6" height="163.536" viewBox="0 0 271.6 163.536">
  <g id="Group_2735" data-name="Group 2735" transform="translate(-71 -155.599)">
    <path id="Path_1670" data-name="Path 1670" d="M306.9,358.568s-24.958-31.629.356-70.939c23.474-36.452,59.811-18.964,82.719-52.426,58.042-84.78,181.94-19.6,163.351,52.448-9,34.869,27.378,36.138,8.847,70.991Z" transform="translate(-224.912 -39.507)" fill="#ebf3fa"/>
    <path id="star" d="M124.944,47.814a3.667,3.667,0,0,0-2.921-2.463l-38.842-5.9L65.886,2.3a3.813,3.813,0,0,0-6.637,0l-17.3,37.143-38.842,5.9a3.672,3.672,0,0,0-2.069,6.191l28.28,28.774L22.7,121.238a3.667,3.667,0,0,0,5.392,3.8l34.48-19.084,34.48,19.084a3.667,3.667,0,0,0,5.392-3.8L95.812,80.317l28.28-28.774A3.674,3.674,0,0,0,124.944,47.814Z" transform="translate(144.866 190.632)" fill="#ffb900"/>
    <g id="Group_2728" data-name="Group 2728">
      <circle id="Ellipse_127" data-name="Ellipse 127" cx="6.816" cy="6.816" r="6.816" transform="translate(289.733 207.345)" fill="#d5e5fb"/>
      <path id="star-2" data-name="star" d="M6.276,2.751a.184.184,0,0,0-.147-.124l-1.951-.3L3.309.465a.192.192,0,0,0-.333,0L2.107,2.331l-1.951.3a.184.184,0,0,0-.1.311L1.473,4.384,1.14,6.439a.184.184,0,0,0,.271.191l1.732-.959,1.732.959a.184.184,0,0,0,.271-.191L4.812,4.384,6.233,2.938A.185.185,0,0,0,6.276,2.751Z" transform="translate(293 210.346)" fill="#fff"/>
    </g>
    <g id="Group_2729" data-name="Group 2729" transform="translate(14 39)">
      <circle id="Ellipse_127-2" data-name="Ellipse 127" cx="6.816" cy="6.816" r="6.816" transform="translate(289.733 207.345)" fill="#d5e5fb"/>
      <path id="star-3" data-name="star" d="M6.276,2.751a.184.184,0,0,0-.147-.124l-1.951-.3L3.309.465a.192.192,0,0,0-.333,0L2.107,2.331l-1.951.3a.184.184,0,0,0-.1.311L1.473,4.384,1.14,6.439a.184.184,0,0,0,.271.191l1.732-.959,1.732.959a.184.184,0,0,0,.271-.191L4.812,4.384,6.233,2.938A.185.185,0,0,0,6.276,2.751Z" transform="translate(293 210.346)" fill="#ffb900"/>
    </g>
    <g id="Group_2730" data-name="Group 2730" transform="translate(-106 -32)">
      <circle id="Ellipse_127-3" data-name="Ellipse 127" cx="6.816" cy="6.816" r="6.816" transform="translate(289.733 207.345)" fill="#d5e5fb"/>
      <path id="star-4" data-name="star" d="M6.276,2.751a.184.184,0,0,0-.147-.124l-1.951-.3L3.309.465a.192.192,0,0,0-.333,0L2.107,2.331l-1.951.3a.184.184,0,0,0-.1.311L1.473,4.384,1.14,6.439a.184.184,0,0,0,.271.191l1.732-.959,1.732.959a.184.184,0,0,0,.271-.191L4.812,4.384,6.233,2.938A.185.185,0,0,0,6.276,2.751Z" transform="translate(293 210.346)" fill="#ffb900"/>
    </g>
    <g id="Group_2731" data-name="Group 2731" transform="translate(-142 85)">
      <circle id="Ellipse_127-4" data-name="Ellipse 127" cx="6.816" cy="6.816" r="6.816" transform="translate(289.733 207.345)" fill="#d5e5fb"/>
      <path id="star-5" data-name="star" d="M6.276,2.751a.184.184,0,0,0-.147-.124l-1.951-.3L3.309.465a.192.192,0,0,0-.333,0L2.107,2.331l-1.951.3a.184.184,0,0,0-.1.311L1.473,4.384,1.14,6.439a.184.184,0,0,0,.271.191l1.732-.959,1.732.959a.184.184,0,0,0,.271-.191L4.812,4.384,6.233,2.938A.185.185,0,0,0,6.276,2.751Z" transform="translate(293 210.346)" fill="#fff"/>
    </g>
    <g id="Group_2732" data-name="Group 2732" transform="translate(-173 43)">
      <circle id="Ellipse_127-5" data-name="Ellipse 127" cx="6.816" cy="6.816" r="6.816" transform="translate(289.733 207.345)" fill="#d5e5fb"/>
      <path id="star-6" data-name="star" d="M6.276,2.751a.184.184,0,0,0-.147-.124l-1.951-.3L3.309.465a.192.192,0,0,0-.333,0L2.107,2.331l-1.951.3a.184.184,0,0,0-.1.311L1.473,4.384,1.14,6.439a.184.184,0,0,0,.271.191l1.732-.959,1.732.959a.184.184,0,0,0,.271-.191L4.812,4.384,6.233,2.938A.185.185,0,0,0,6.276,2.751Z" transform="translate(293 210.346)" fill="#fff"/>
    </g>
    <g id="Group_2733" data-name="Group 2733" transform="translate(-207 85)">
      <circle id="Ellipse_127-6" data-name="Ellipse 127" cx="6.816" cy="6.816" r="6.816" transform="translate(289.733 207.345)" fill="#d5e5fb"/>
      <path id="star-7" data-name="star" d="M6.276,2.751a.184.184,0,0,0-.147-.124l-1.951-.3L3.309.465a.192.192,0,0,0-.333,0L2.107,2.331l-1.951.3a.184.184,0,0,0-.1.311L1.473,4.384,1.14,6.439a.184.184,0,0,0,.271.191l1.732-.959,1.732.959a.184.184,0,0,0,.271-.191L4.812,4.384,6.233,2.938A.185.185,0,0,0,6.276,2.751Z" transform="translate(293 210.346)" fill="#ffb900"/>
    </g>
    <g id="Group_2734" data-name="Group 2734" transform="translate(14 85)">
      <circle id="Ellipse_127-7" data-name="Ellipse 127" cx="6.816" cy="6.816" r="6.816" transform="translate(289.733 207.345)" fill="#d5e5fb"/>
      <path id="star-8" data-name="star" d="M6.276,2.751a.184.184,0,0,0-.147-.124l-1.951-.3L3.309.465a.192.192,0,0,0-.333,0L2.107,2.331l-1.951.3a.184.184,0,0,0-.1.311L1.473,4.384,1.14,6.439a.184.184,0,0,0,.271.191l1.732-.959,1.732.959a.184.184,0,0,0,.271-.191L4.812,4.384,6.233,2.938A.185.185,0,0,0,6.276,2.751Z" transform="translate(293 210.346)" fill="#fff"/>
    </g>
    <path id="ic_star_half_24px" d="M38.842,15.337,25.6,14.195,20.421,2,15.245,14.213,2,15.337,12.058,24.05,9.037,37l11.384-6.871L31.805,37l-3-12.95ZM20.421,26.684V9.553l3.15,7.442,8.068.7L25.524,23l1.842,7.884Z" transform="translate(187 235)" fill="#fff"/>
  </g>
</svg>
