<svg xmlns="http://www.w3.org/2000/svg" width="267.71" height="161.195" viewBox="0 0 267.71 161.195">
  <g id="Group_2764" data-name="Group 2764" transform="translate(-62.356 -215.545)">
    <path id="Path_1670" data-name="Path 1670" d="M306.742,356.228s-24.6-31.177.351-69.924c23.138-35.93,58.954-18.692,81.535-51.675,57.211-83.566,179.335-19.322,161.012,51.7-8.867,34.37,26.986,35.621,8.717,69.975Z" transform="translate(-233.555 20.439)" fill="#ebf3fa"/>
    <g id="Group_2763" data-name="Group 2763" transform="translate(-7317.2 85.046)">
      <g id="FAISAL_3" data-name="FAISAL 3" transform="translate(7411 140)">
        <g id="Background_Complete" data-name="Background Complete" transform="translate(7.267)">
          <rect id="Rectangle_3821" data-name="Rectangle 3821" width="45.942" height="67.649" transform="translate(0 67.154) rotate(-33.78)" fill="#f5f5f5"/>
          <path id="Path_2016" data-name="Path 2016" d="M148.45,274.356l-.436,2.682L129.03,274.3l.436-2.682Z" transform="translate(-92.383 -179.177)" fill="#e0e0e0"/>
          <path id="Path_2017" data-name="Path 2017" d="M152.142,251.55l2.723.391-3.019,18.691-2.726-.395Z" transform="translate(-105.636 -165.938)" fill="#e0e0e0"/>
          <path id="Path_2018" data-name="Path 2018" d="M228.47,185" transform="translate(-187.362 -122.037)" fill="none" stroke="#fff" stroke-miterlimit="10" stroke-width="1"/>
          <ellipse id="Ellipse_374" data-name="Ellipse 374" cx="10.356" cy="0.089" rx="10.356" ry="0.089" transform="translate(11.993 73.012) rotate(-34.007)" fill="#e0e0e0"/>
          <path id="Path_2019" data-name="Path 2019" d="M178.934,171.389c.027.041-6.337,4.346-14.213,9.611s-14.294,9.506-14.311,9.465,6.327-4.343,14.213-9.611S178.907,171.349,178.934,171.389Z" transform="translate(-135.868 -113.059)" fill="#e0e0e0"/>
          <path id="Path_2020" data-name="Path 2020" d="M187.2,183.749c.027.041-6.337,4.346-14.213,9.611s-14.294,9.506-14.311,9.465,6.334-4.343,14.213-9.615S187.177,183.709,187.2,183.749Z" transform="translate(-141.324 -121.212)" fill="#e0e0e0"/>
          <path id="Path_2021" data-name="Path 2021" d="M195.474,196.119c.027.041-6.337,4.346-14.213,9.611s-14.294,9.506-14.311,9.465,6.334-4.343,14.213-9.615S195.447,196.079,195.474,196.119Z" transform="translate(-146.779 -129.372)" fill="#e0e0e0"/>
          <path id="Path_2022" data-name="Path 2022" d="M203.714,208.489c.027.041-6.337,4.346-14.213,9.611s-14.294,9.506-14.311,9.465,6.344-4.343,14.23-9.611S203.7,208.449,203.714,208.489Z" transform="translate(-152.215 -137.532)" fill="#e0e0e0"/>
          <rect id="Rectangle_3822" data-name="Rectangle 3822" width="38.584" height="56.813" transform="translate(133.807 100.739) rotate(-33.78)" fill="#f5f5f5"/>
          <path id="Path_2023" data-name="Path 2023" d="M521.259,360.727l-.364,2.253-15.945-2.3.364-2.253Z" transform="translate(-340.363 -236.442)" fill="#e0e0e0"/>
          <path id="Path_2024" data-name="Path 2024" d="M524.356,341.57l2.29.33-2.539,15.7-2.287-.33Z" transform="translate(-351.492 -225.32)" fill="#e0e0e0"/>
          <path id="Path_2025" data-name="Path 2025" d="M602.29,285.68" transform="translate(-433.956 -188.452)" fill="none" stroke="#fff" stroke-miterlimit="10" stroke-width="1"/>
          <ellipse id="Ellipse_375" data-name="Ellipse 375" cx="8.685" cy="0.088" rx="8.685" ry="0.088" transform="translate(143.695 105.873) rotate(-33.78)" fill="#e0e0e0"/>
          <ellipse id="Ellipse_376" data-name="Ellipse 376" cx="14.41" cy="0.088" rx="14.41" ry="0.088" transform="translate(145.969 109.276) rotate(-33.78)" fill="#e0e0e0"/>
          <ellipse id="Ellipse_377" data-name="Ellipse 377" cx="14.41" cy="0.088" rx="14.41" ry="0.088" transform="translate(148.334 112.81) rotate(-33.78)" fill="#e0e0e0"/>
          <ellipse id="Ellipse_378" data-name="Ellipse 378" cx="14.41" cy="0.088" rx="14.41" ry="0.088" transform="translate(150.697 116.345) rotate(-33.78)" fill="#e0e0e0"/>
          <ellipse id="Ellipse_379" data-name="Ellipse 379" cx="14.41" cy="0.088" rx="14.41" ry="0.088" transform="translate(153.064 119.878) rotate(-33.78)" fill="#e0e0e0"/>
          <rect id="Rectangle_3823" data-name="Rectangle 3823" width="39.684" height="58.433" transform="translate(80.143 24.963) rotate(28.14)" fill="#f5f5f5"/>
          <path id="Path_2026" data-name="Path 2026" d="M245.865,202.171l-2.219.759-5.636-15.577,2.219-.762Z" transform="translate(-164.273 -123.086)" fill="#e0e0e0"/>
          <path id="Path_2027" data-name="Path 2027" d="M241.1,199.53l.81,2.236-15.472,5.3-.81-2.236Z" transform="translate(-156.107 -131.622)" fill="#e0e0e0"/>
          <path id="Path_2028" data-name="Path 2028" d="M401.69,160.38" transform="translate(-301.628 -105.796)" fill="none" stroke="#fff" stroke-miterlimit="10" stroke-width="1"/>
          <ellipse id="Ellipse_380" data-name="Ellipse 380" cx="0.106" cy="8.934" rx="0.106" ry="8.934" transform="translate(80.189 36.593) rotate(-61.86)" fill="#e0e0e0"/>
          <ellipse id="Ellipse_381" data-name="Ellipse 381" cx="0.106" cy="14.822" rx="0.106" ry="14.822" transform="translate(78.199 40.305) rotate(-61.86)" fill="#e0e0e0"/>
          <ellipse id="Ellipse_382" data-name="Ellipse 382" cx="0.106" cy="14.822" rx="0.106" ry="14.822" transform="translate(76.137 44.161) rotate(-61.86)" fill="#e0e0e0"/>
          <ellipse id="Ellipse_383" data-name="Ellipse 383" cx="0.106" cy="14.822" rx="0.106" ry="14.822" transform="translate(74.073 48.019) rotate(-61.86)" fill="#e0e0e0"/>
          <ellipse id="Ellipse_384" data-name="Ellipse 384" cx="0.106" cy="14.822" rx="0.106" ry="14.822" transform="translate(72.014 51.876) rotate(-61.86)" fill="#e0e0e0"/>
          <rect id="Rectangle_3824" data-name="Rectangle 3824" width="0.878" height="14.968" transform="translate(97.503)" opacity="0.2"/>
        </g>
        <g id="Lamp" transform="translate(84.71)">
          <path id="Path_2029" data-name="Path 2029" d="M335.23,62.1h41S372.443,44,355.419,44C340.277,44,335.23,62.1,335.23,62.1Z" transform="translate(-335.23 -29.025)" fill="#69bef7"/>
          <rect id="Rectangle_3825" data-name="Rectangle 3825" width="0.878" height="14.968" transform="translate(20.06)" fill="#69bef7"/>
        </g>
        <g id="Floor" transform="translate(0 149.603)">
          <path id="Path_2030" data-name="Path 2030" d="M282.821,439.658c0,.048-43.989.089-98.239.089s-98.252-.031-98.252-.089,43.979-.089,98.249-.089S282.821,439.607,282.821,439.658Z" transform="translate(-86.33 -439.57)" fill="#263238"/>
        </g>
        <g id="Plant" transform="translate(7.266 128.372)">
          <path id="Path_2031" data-name="Path 2031" d="M115.835,377.193a4.288,4.288,0,0,1,2.988,1.531,7.573,7.573,0,0,1,1.521,3.063,13.387,13.387,0,0,1-.391,6.834c-2.331-.834-3.768-3.318-4.424-4.625-1.021-2.066-1.63-6.419.3-6.807" transform="translate(-112.223 -377.19)" fill="#69bef7"/>
          <path id="Path_2032" data-name="Path 2032" d="M139.109,406.487a3.659,3.659,0,0,1-.17-3.672,4.86,4.86,0,0,1,2.927-2.352,2.05,2.05,0,0,1,1.722.082,1.566,1.566,0,0,1,.6,1.467,3.176,3.176,0,0,1-.681,1.5c-1.133,1.535-2.512,2.811-4.424,2.968" transform="translate(-128.027 -392.445)" fill="#69bef7"/>
          <path id="Path_2033" data-name="Path 2033" d="M139.716,418.726a2.593,2.593,0,0,1-.105-.446l-.238-1.225a12.844,12.844,0,0,1-.255-4.118,7.862,7.862,0,0,1,1.528-3.819,5.34,5.34,0,0,1,.885-.892,3.248,3.248,0,0,1,.276-.2c.065-.044.1-.065.105-.058a8.359,8.359,0,0,0-1.174,1.222,8.117,8.117,0,0,0-1.46,3.771,13.822,13.822,0,0,0,.208,4.084c.082.521.15.943.191,1.235a2.424,2.424,0,0,1,.041.446Z" transform="translate(-128.375 -397.492)" fill="#263238"/>
          <path id="Path_2034" data-name="Path 2034" d="M120.49,386.83a.928.928,0,0,1,.1.177l.242.517c.2.453.5,1.109.847,1.923.7,1.63,1.64,3.9,2.621,6.419s1.814,4.833,2.382,6.507c.289.837.521,1.518.681,1.991l.174.545a.929.929,0,0,1,.051.194.935.935,0,0,1-.082-.184l-.2-.534-.722-1.974c-.609-1.668-1.46-3.965-2.437-6.49s-1.9-4.792-2.573-6.436l-.8-1.943-.211-.531A.926.926,0,0,1,120.49,386.83Z" transform="translate(-116.13 -383.549)" fill="#263238"/>
          <path id="Path_2035" data-name="Path 2035" d="M116.252,417.577a8.563,8.563,0,0,0-6.643-4.128c-.681-.051-1.518.065-1.824.681a1.772,1.772,0,0,0,.572,1.862,7.314,7.314,0,0,0,7.92,1.77" transform="translate(-107.678 -401.102)" fill="#69bef7"/>
          <path id="Path_2036" data-name="Path 2036" d="M116.43,418.869a2.209,2.209,0,0,1,.432,0,4.155,4.155,0,0,1,.5.058c.194.037.419.058.66.123a7.493,7.493,0,0,1,.786.218,8.427,8.427,0,0,1,.875.34,9.531,9.531,0,0,1,1.845,1.093,9.32,9.32,0,0,1,1.525,1.508,8.133,8.133,0,0,1,.538.769,6.909,6.909,0,0,1,.4.711,6.333,6.333,0,0,1,.276.613,3.854,3.854,0,0,1,.17.477,2.191,2.191,0,0,1,.112.415c-.034,0-.2-.582-.66-1.453a7.4,7.4,0,0,0-.412-.681,8.524,8.524,0,0,0-.541-.745,9.7,9.7,0,0,0-1.508-1.474,9.9,9.9,0,0,0-1.807-1.086,8.864,8.864,0,0,0-.858-.34c-.269-.1-.531-.167-.769-.235C117.043,418.937,116.427,418.907,116.43,418.869Z" transform="translate(-113.451 -404.677)" fill="#263238"/>
        </g>
        <g id="Character" transform="translate(137.483 23.177)">
          <path id="Path_2037" data-name="Path 2037" d="M560.477,104.108c-1,.231-1.487,1.382-1.583,2.4a9.2,9.2,0,0,1-.395,3.036c-.483,1.052-1.637,1.824-1.678,2.978-.024.7.395,1.361.374,2.073-.034,1.157-1.212,2.042-1.273,3.186-.044.83.511,1.63.378,2.454-.1.64-.6,1.144-.813,1.76A2.988,2.988,0,0,0,557,125.253a4.962,4.962,0,0,0,7.232-2.311,10.117,10.117,0,0,0,.34-4.71q-.616-7.406-.916-14.832" transform="translate(-533.226 -91.386)" fill="#263238"/>
          <path id="Path_2038" data-name="Path 2038" d="M561.82,123.644a1.2,1.2,0,0,0,.456-.545,1.929,1.929,0,0,0,.116-.83,4.6,4.6,0,0,0-.248-1.1,3.143,3.143,0,0,1-.177-1.4,3.177,3.177,0,0,1,.81-1.392,3.112,3.112,0,0,0,.459-.7,1.127,1.127,0,0,0,.055-.817c-.177-.555-.722-.967-.97-1.606a1.736,1.736,0,0,1-.054-.994,4.031,4.031,0,0,1,.34-.892,7.6,7.6,0,0,0,.681-1.6c.238-1.079.126-2.11.289-2.958a3.285,3.285,0,0,1,.861-1.814,1.933,1.933,0,0,1,.449-.32.771.771,0,0,1,.18-.068,2.757,2.757,0,0,0-.582.436,3.316,3.316,0,0,0-.786,1.787,11.221,11.221,0,0,0-.1,1.361,8.383,8.383,0,0,1-.16,1.6,7.606,7.606,0,0,1-.681,1.637,2.247,2.247,0,0,0-.266,1.746c.225.585.766.99.97,1.617a1.3,1.3,0,0,1-.065.936,3.24,3.24,0,0,1-.5.759,3.239,3.239,0,0,0-.793,1.317,3.063,3.063,0,0,0,.153,1.334,4.55,4.55,0,0,1,.228,1.133,1.942,1.942,0,0,1-.153.861,1.021,1.021,0,0,1-.34.429A.56.56,0,0,1,561.82,123.644Z" transform="translate(-537.476 -93.503)" fill="#455a64"/>
          <path id="Path_2039" data-name="Path 2039" d="M519.091,180.37l-3.063,8.849-12.81.681-2.137,4.765,13.375,1.361a5.054,5.054,0,0,0,6.677-2.971l3.57-9.965Z" transform="translate(-497.408 -142.16)" fill="#b78876"/>
          <path id="Path_2040" data-name="Path 2040" d="M585.673,311.974s-9.39-29.82-9.587-30.787c-.18-.875,3.4-22.333,3.859-27.887l-12.684.473v.106l-5.391.3L566.7,315.14h5.837l-.579-20.233a197.318,197.318,0,0,0,8.757,19.512Z" transform="translate(-537.508 -190.269)" fill="#b78876"/>
          <path id="Path_2041" data-name="Path 2041" d="M587.825,371.914c0-.184-.071-6.78-.071-6.78-.072.395-2.24-5.725-2.185-6.1C585.6,358.845,587.825,371.914,587.825,371.914Z" transform="translate(-553.141 -260.017)" fill="#a36957"/>
          <path id="Path_2042" data-name="Path 2042" d="M584.752,350.53a1.365,1.365,0,0,0-.037.371,9.823,9.823,0,0,0,0,1.021,6.126,6.126,0,0,0,.058.681c.027.235.065.517.123.793a13.607,13.607,0,0,0,.477,1.777c.425,1.232.892,2.311,1.225,3.1l.405.922a.2.2,0,1,0,.071,0c-.078-.225-.2-.548-.34-.946-.3-.8-.745-1.882-1.167-3.107a15.408,15.408,0,0,1-.487-1.749c-.061-.272-.1-.534-.139-.779s-.065-.476-.082-.681c-.041-.422-.058-.766-.068-1A1.36,1.36,0,0,0,584.752,350.53Z" transform="translate(-552.569 -254.408)" fill="#a36957"/>
          <path id="Path_2043" data-name="Path 2043" d="M567.925,434.34v-.548l5.98-.262v2.26l-.368.024c-1.64.1-8.352.374-9.451.044C562.875,435.494,567.925,434.34,567.925,434.34Z" transform="translate(-538.847 -309.159)" fill="#455a64"/>
          <path id="Path_2044" data-name="Path 2044" d="M574.015,439.78h-.1l-.293.02-1.082.051c-.912.037-2.175.068-3.57.075s-2.658,0-3.57-.044l-1.082-.041h0l1.082.017c.912,0,2.175.031,3.57.024s2.655-.031,3.57-.054l1.082-.027h.293Z" transform="translate(-538.861 -313.282)" fill="#263238"/>
          <path id="Path_2045" data-name="Path 2045" d="M568.885,438.539a1.573,1.573,0,0,0-.575-.929A.96.96,0,0,1,568.885,438.539Z" transform="translate(-541.757 -311.851)" fill="#263238"/>
          <ellipse id="Ellipse_385" data-name="Ellipse 385" cx="0.037" cy="0.293" rx="0.037" ry="0.293" transform="matrix(0.842, -0.539, 0.539, 0.842, 28.545, 125.321)" fill="#263238"/>
          <ellipse id="Ellipse_386" data-name="Ellipse 386" cx="0.037" cy="0.248" rx="0.037" ry="0.248" transform="translate(28.978 125.235) rotate(-48.27)" fill="#263238"/>
          <ellipse id="Ellipse_387" data-name="Ellipse 387" cx="0.31" cy="0.037" rx="0.31" ry="0.037" transform="translate(29.045 124.954) rotate(-0.85)" fill="#263238"/>
          <path id="Path_2046" data-name="Path 2046" d="M576.424,434.14a.874.874,0,0,1-.7.054Q576.073,434.172,576.424,434.14Z" transform="translate(-546.645 -309.562)" fill="#263238"/>
          <path id="Path_2047" data-name="Path 2047" d="M572.413,435.154a1.1,1.1,0,0,1-.381,0,2.244,2.244,0,0,1-.408-.089,1.113,1.113,0,0,1-.235-.1.207.207,0,0,1-.1-.119.15.15,0,0,1,.058-.153.7.7,0,0,1,.868.2.681.681,0,0,1,.126.255.211.211,0,0,1,0,.1,1.084,1.084,0,0,0-.177-.34.681.681,0,0,0-.34-.211.592.592,0,0,0-.456.034c-.061.044-.037.116.031.157a1.136,1.136,0,0,0,.214.092,2.632,2.632,0,0,0,.395.1C572.267,435.144,572.413,435.144,572.413,435.154Z" transform="translate(-543.722 -309.882)" fill="#263238"/>
          <path id="Path_2048" data-name="Path 2048" d="M574.2,434.8a.378.378,0,0,1-.044-.265.627.627,0,0,1,.1-.279.385.385,0,0,1,.317-.2.153.153,0,0,1,.119.177.417.417,0,0,1-.065.17,1.154,1.154,0,0,1-.18.231.55.55,0,0,1-.218.157,2.375,2.375,0,0,0,.18-.191,1.337,1.337,0,0,0,.16-.231c.051-.082.088-.225,0-.242s-.194.085-.252.163a.628.628,0,0,0-.109.248A1.384,1.384,0,0,0,574.2,434.8Z" transform="translate(-545.608 -309.509)" fill="#263238"/>
          <path id="Path_2049" data-name="Path 2049" d="M589.117,434.923s-.17,0-.439.017a1.865,1.865,0,0,0-1.555,1.249c-.089.255-.1.425-.112.425a.34.34,0,0,1,0-.119,1.563,1.563,0,0,1,.065-.32,1.807,1.807,0,0,1,1.6-1.283,1.567,1.567,0,0,1,.34,0A.34.34,0,0,1,589.117,434.923Z" transform="translate(-554.089 -310.052)" fill="#263238"/>
          <path id="Path_2050" data-name="Path 2050" d="M581.429,438.362a4.887,4.887,0,0,1-1.739,0c0-.02.391,0,.868,0S581.426,438.342,581.429,438.362Z" transform="translate(-549.264 -312.341)" fill="#263238"/>
          <path id="Path_2051" data-name="Path 2051" d="M587.886,438.344s-.031.082-.072.17-.061.167-.082.167-.031-.1,0-.2S587.872,438.327,587.886,438.344Z" transform="translate(-554.556 -312.333)" fill="#263238"/>
          <ellipse id="Ellipse_388" data-name="Ellipse 388" cx="0.16" cy="0.037" rx="0.16" ry="0.037" transform="translate(33.514 125.66) rotate(-45.6)" fill="#263238"/>
          <path id="Path_2052" data-name="Path 2052" d="M590.691,435.935c0,.02-.082.02-.17.051s-.15.078-.167.065.034-.1.143-.133S590.7,435.914,590.691,435.935Z" transform="translate(-556.296 -310.723)" fill="#263238"/>
          <ellipse id="Ellipse_389" data-name="Ellipse 389" cx="0.095" cy="0.037" rx="0.095" ry="0.037" transform="matrix(0.931, -0.365, 0.365, 0.931, 34.651, 125.119)" fill="#263238"/>
          <path id="Path_2053" data-name="Path 2053" d="M610.845,428.179l-.228-.5,5.347-2.689.943,2.042-.34.174c-1.457.759-7.467,3.761-8.6,3.91C606.71,431.3,610.845,428.179,610.845,428.179Z" transform="translate(-567.758 -303.526)" fill="#455a64"/>
          <path id="Path_2054" data-name="Path 2054" d="M616.946,430.57l-.088.051-.259.136-.967.49c-.817.408-1.957.953-3.226,1.532s-2.43,1.072-3.278,1.423l-1,.405-.276.105-.1.031.092-.044.269-.119.994-.425c.841-.361,2-.865,3.267-1.44s2.41-1.116,3.233-1.511l.977-.47.265-.126Z" transform="translate(-567.774 -307.207)" fill="#263238"/>
          <path id="Path_2055" data-name="Path 2055" d="M611.765,439.553a1.573,1.573,0,0,0-.905-.613A.96.96,0,0,1,611.765,439.553Z" transform="translate(-569.825 -312.728)" fill="#263238"/>
          <ellipse id="Ellipse_390" data-name="Ellipse 390" cx="0.037" cy="0.293" rx="0.037" ry="0.293" transform="matrix(0.548, -0.837, 0.837, 0.548, 42.663, 125.008)" fill="#263238"/>
          <ellipse id="Ellipse_391" data-name="Ellipse 391" cx="0.037" cy="0.248" rx="0.037" ry="0.248" transform="translate(43.011 124.743) rotate(-72.45)" fill="#263238"/>
          <ellipse id="Ellipse_392" data-name="Ellipse 392" cx="0.31" cy="0.037" rx="0.31" ry="0.037" transform="translate(42.966 124.467) rotate(-25.03)" fill="#263238"/>
          <path id="Path_2056" data-name="Path 2056" d="M616.813,431.9a.837.837,0,0,1-.272.235.6.6,0,0,1-.34.105q.312-.166.619-.34Z" transform="translate(-573.348 -308.084)" fill="#263238"/>
          <path id="Path_2057" data-name="Path 2057" d="M613.75,434.606a1.1,1.1,0,0,1-.34.157,2.232,2.232,0,0,1-.408.085,1.108,1.108,0,0,1-.252,0,.208.208,0,0,1-.136-.068.15.15,0,0,1,0-.163.7.7,0,0,1,.875-.17.681.681,0,0,1,.218.18.236.236,0,0,1,.051.088,1.084,1.084,0,0,0-.293-.225.682.682,0,0,0-.385-.058.593.593,0,0,0-.4.218c-.037.065,0,.122.092.129a1.144,1.144,0,0,0,.235,0,2.629,2.629,0,0,0,.4-.068C613.6,434.653,613.733,434.579,613.75,434.606Z" transform="translate(-570.966 -309.708)" fill="#263238"/>
          <path id="Path_2058" data-name="Path 2058" d="M615.372,433.635a.378.378,0,0,1-.15-.225.626.626,0,0,1-.02-.3.384.384,0,0,1,.211-.31c.085-.027.286.146.3.211s-.1.031-.106.085a1.158,1.158,0,0,1-.068.286.553.553,0,0,1-.136.231s.041-.1.089-.249a1.341,1.341,0,0,0,.051-.276c0-.1,0-.242-.109-.218s-.139.157-.163.252a.632.632,0,0,0,0,.272A1.391,1.391,0,0,0,615.372,433.635Z" transform="translate(-572.684 -308.679)" fill="#263238"/>
          <path id="Path_2059" data-name="Path 2059" d="M629.815,426.36a2.206,2.206,0,0,0-.395.194,1.865,1.865,0,0,0-.905,1.773c.024.269.085.429.071.432a.341.341,0,0,1-.051-.109,1.56,1.56,0,0,1-.075-.32,1.807,1.807,0,0,1,.933-1.824,1.56,1.56,0,0,1,.3-.126A.339.339,0,0,1,629.815,426.36Z" transform="translate(-581.425 -304.43)" fill="#263238"/>
          <path id="Path_2060" data-name="Path 2060" d="M623.112,432.9a4.883,4.883,0,0,1-1.583.721c0-.02.357-.156.793-.34S623.1,432.881,623.112,432.9Z" transform="translate(-576.864 -308.742)" fill="#263238"/>
          <path id="Path_2061" data-name="Path 2061" d="M629.158,431.468c.021,0,0,.088,0,.187v.187a.258.258,0,0,1-.068-.187C629.09,431.54,629.141,431.458,629.158,431.468Z" transform="translate(-581.851 -307.799)" fill="#263238"/>
          <ellipse id="Ellipse_393" data-name="Ellipse 393" cx="0.16" cy="0.037" rx="0.16" ry="0.037" transform="matrix(0.346, -0.938, 0.938, 0.346, 47.335, 123.274)" fill="#263238"/>
          <path id="Path_2062" data-name="Path 2062" d="M630.658,428c0,.02-.068.051-.136.116s-.106.133-.126.126,0-.1.075-.18A.23.23,0,0,1,630.658,428Z" transform="translate(-582.707 -305.508)" fill="#263238"/>
          <ellipse id="Ellipse_394" data-name="Ellipse 394" cx="0.095" cy="0.037" rx="0.095" ry="0.037" transform="translate(48.144 122.305) rotate(-45.6)" fill="#263238"/>
          <path id="Path_2063" data-name="Path 2063" d="M567.947,177.437l-1-12.15,5.105.092a20.265,20.265,0,0,0-.517-5.721,6.63,6.63,0,0,0-3.866-4.765v-.031l-.157-.041a14.634,14.634,0,0,0-4.687-1.222l-6.279.071s-4.789-.616-7.433,2.818c-1.021,1.317-4.186,10.333-4.186,10.333l7.535,3.628-.7-5a23.616,23.616,0,0,0,.606,4.765c.259.64,1,2.627,1,2.627l-.1,5.993Z" transform="translate(-526.334 -124.501)" fill="#69bef7"/>
          <path id="Path_2064" data-name="Path 2064" d="M514.249,177.549l-.929,3.968h8.791l-.579-6.657Z" transform="translate(-476.101 -138.525)" fill="#69bef7"/>
          <path id="Path_2065" data-name="Path 2065" d="M610.05,194.056a6.572,6.572,0,0,0-1.164-.116c-.722-.041-1.7-.078-2.818-.071s-2.1.054-2.818.109a6.285,6.285,0,0,0-1.16.143,7.833,7.833,0,0,0,1.167,0c.721-.02,1.7-.048,2.811-.054s2.093,0,2.815,0A7.435,7.435,0,0,0,610.05,194.056Z" transform="translate(-564.04 -151.063)" fill="#263238"/>
          <path id="Path_2066" data-name="Path 2066" d="M601.187,174.77a5.2,5.2,0,0,0-.031,1.021c0,.623.031,1.484.065,2.433s.082,1.811.123,2.43a5.222,5.222,0,0,0,.109,1.021,5.224,5.224,0,0,0,.031-1.021c0-.623-.031-1.484-.065-2.433s-.082-1.807-.122-2.43A5.223,5.223,0,0,0,601.187,174.77Z" transform="translate(-563.416 -138.466)" fill="#263238"/>
          <g id="Group_2759" data-name="Group 2759" transform="translate(29.773 39.742)" opacity="0.3">
            <path id="Path_2067" data-name="Path 2067" d="M577.77,184.87s1.954,14.488,7.447,14.1c0,0,2.474-.031,3.267-1.674v-.647Z" transform="translate(-577.77 -184.87)"/>
          </g>
          <g id="Group_2760" data-name="Group 2760" transform="translate(36.719 37.159)" opacity="0.3">
            <path id="Path_2068" data-name="Path 2068" d="M512.9,177.28l-1.052,7.1.681,1.246,1.12-2.437-.473-.014Z" transform="translate(-511.85 -177.28)"/>
          </g>
          <path id="Path_2069" data-name="Path 2069" d="M566.261,192.336a1.493,1.493,0,0,1-.15-.34c-.085-.221-.2-.548-.34-.95a28.926,28.926,0,0,1-.841-3.216,23.215,23.215,0,0,1-.415-3.3c-.02-.425-.027-.769-.02-1.021a1.494,1.494,0,0,1,.024-.371c.027,0,.048.524.119,1.361a30.63,30.63,0,0,0,.466,3.274c.252,1.266.555,2.382.786,3.213l.276.967a1.5,1.5,0,0,1,.1.381Z" transform="translate(-539.238 -143.987)" fill="#263238"/>
          <ellipse id="Ellipse_395" data-name="Ellipse 395" cx="0.088" cy="0.756" rx="0.088" ry="0.756" transform="translate(28.722 51.082) rotate(-16.83)" fill="#263238"/>
          <path id="Path_2070" data-name="Path 2070" d="M578.05,218.114a3.135,3.135,0,0,1-.031-2.124,36.82,36.82,0,0,0,.031,2.124Z" transform="translate(-548.05 -165.657)" fill="#263238"/>
          <ellipse id="Ellipse_396" data-name="Ellipse 396" cx="0.088" cy="4.336" rx="0.088" ry="4.336" transform="translate(18.481 42.316) rotate(-63.45)" fill="#263238"/>
          <path id="Path_2071" data-name="Path 2071" d="M571.512,125c.041-1.722.048-3.536.048-3.536a3.606,3.606,0,0,1-2.593-3.332c-.367-2.77.66-9.274.66-9.274h0a7.761,7.761,0,0,1,8.787,2.5h0l-.548,13.978a3,3,0,0,1-3.247,2.781h0A3.162,3.162,0,0,1,571.512,125Z" transform="translate(-542.137 -94.66)" fill="#b78876"/>
          <path id="Path_2072" data-name="Path 2072" d="M570.559,124.433a.371.371,0,0,0,.34.385.341.341,0,0,0,.391-.34.371.371,0,0,0-.34-.385.34.34,0,0,0-.391.34Z" transform="translate(-543.24 -105.033)" fill="#263238"/>
          <path id="Path_2073" data-name="Path 2073" d="M570.148,122.95c.044.051.34-.15.732-.14s.681.218.732.17-.024-.109-.146-.2a1.021,1.021,0,0,0-.585-.2.976.976,0,0,0-.582.17C570.168,122.841,570.124,122.926,570.148,122.95Z" transform="translate(-542.965 -104.037)" fill="#263238"/>
          <path id="Path_2074" data-name="Path 2074" d="M582.469,125.173a.371.371,0,0,0,.34.385.34.34,0,0,0,.391-.34.371.371,0,0,0-.34-.385.34.34,0,0,0-.391.34Z" transform="translate(-551.097 -105.521)" fill="#263238"/>
          <path id="Path_2075" data-name="Path 2075" d="M582.381,123.684c.044.051.34-.15.732-.14s.681.218.732.17-.024-.109-.15-.208a1.021,1.021,0,0,0-.585-.2.981.981,0,0,0-.582.17C582.4,123.575,582.36,123.66,582.381,123.684Z" transform="translate(-551.036 -104.519)" fill="#263238"/>
          <path id="Path_2076" data-name="Path 2076" d="M575.944,126.562a2.645,2.645,0,0,0-.647-.133c-.1,0-.2-.037-.214-.106a.522.522,0,0,1,.075-.3l.32-.769a13.356,13.356,0,0,0,.728-2.015,13.39,13.39,0,0,0-.892,1.95l-.31.773a.589.589,0,0,0-.065.4.255.255,0,0,0,.163.153.679.679,0,0,0,.174.027A2.6,2.6,0,0,0,575.944,126.562Z" transform="translate(-546.123 -104.473)" fill="#263238"/>
          <path id="Path_2077" data-name="Path 2077" d="M576.74,145.063a7.364,7.364,0,0,0,3.9-.933,3.666,3.666,0,0,1-3.88,1.617Z" transform="translate(-547.318 -118.254)" fill="#a36957"/>
          <path id="Path_2078" data-name="Path 2078" d="M583.42,119.938c-.082.126-.385.068-.725,0s-.643-.129-.681-.276.317-.34.773-.248S583.5,119.829,583.42,119.938Z" transform="translate(-550.795 -101.934)" fill="#263238"/>
          <path id="Path_2079" data-name="Path 2079" d="M571.6,118.69c-.031.146-.34.2-.732.218s-.7,0-.749-.15.272-.361.725-.381S571.633,118.551,571.6,118.69Z" transform="translate(-542.949 -101.264)" fill="#263238"/>
          <path id="Path_2080" data-name="Path 2080" d="M577.446,135.779a.2.2,0,0,0-.221.1.228.228,0,1,0,.136-.109" transform="translate(-547.619 -112.734)" fill="#a36957"/>
          <path id="Path_2081" data-name="Path 2081" d="M577.292,135.768c.017,0-.065-.116-.238-.075a.3.3,0,0,0-.218.214.325.325,0,0,0,.5.361.286.286,0,0,0,.123-.283c-.034-.18-.167-.208-.17-.184a.47.47,0,0,1,.034.191.15.15,0,0,1-.082.126.174.174,0,0,1-.174,0,.18.18,0,0,1-.061-.163.173.173,0,0,1,.092-.126C577.2,135.765,577.281,135.792,577.292,135.768Z" transform="translate(-547.372 -112.682)" fill="#263238"/>
          <path id="Path_2082" data-name="Path 2082" d="M578.147,110.389c-.34.8-1.185,1.412-1.069,2.273.075.555.432,1.075.361,1.63-.089.7-.813,1.184-.915,1.882-.126.854.7,1.518,1.021,2.318.483,1.161-.136,2.467-.15,3.727a4,4,0,0,0,3.536,3.887,2.126,2.126,0,0,0,2.042-.837,8.2,8.2,0,0,0,.466-1.862c.3-.912,1.164-1.576,1.361-2.519.34-1.7-1.739-3.131-1.6-4.874a12.165,12.165,0,0,1,.711-2.113,3.1,3.1,0,0,0-.609-2.753c-.51-.609-1.252-1.021-1.7-1.671a6.946,6.946,0,0,1-.681-2.59,6.524,6.524,0,0,0-10.363-3.822,2.119,2.119,0,0,0,1.807,2.617c2.3.374,3.369-.058,3.628.864a2.44,2.44,0,0,0,.681,2.107C577.65,109.681,578.545,109.463,578.147,110.389Z" transform="translate(-543.208 -90.271)" fill="#263238"/>
          <path id="Path_2083" data-name="Path 2083" d="M596.355,138.11a.934.934,0,0,1-.211-.02,3.116,3.116,0,0,1-.585-.157,4.131,4.131,0,0,1-1.78-1.321,4.666,4.666,0,0,1-.759-1.361,5.4,5.4,0,0,1-.31-1.746,7.117,7.117,0,0,1,.245-1.943,8.442,8.442,0,0,1,.34-.984,9.817,9.817,0,0,0,.374-.977,1.842,1.842,0,0,0,0-1,5.454,5.454,0,0,0-.388-.933,6.246,6.246,0,0,1-.4-.922,1.992,1.992,0,0,1-.072-.977,6.935,6.935,0,0,1,.756-1.6,3.062,3.062,0,0,0,.31-1.45,3.427,3.427,0,0,0-.759-2.008,6.089,6.089,0,0,0-.579-.562,2.356,2.356,0,0,1,.63.517,3.4,3.4,0,0,1,.831,2.042,3.149,3.149,0,0,1-.3,1.518,7.194,7.194,0,0,0-.729,1.569,2.882,2.882,0,0,0,.463,1.794,5.52,5.52,0,0,1,.4.963,2.02,2.02,0,0,1,0,1.089,9.739,9.739,0,0,1-.391,1.007,8.4,8.4,0,0,0-.323.963,7.047,7.047,0,0,0-.248,1.9,4.913,4.913,0,0,0,1,3.019,4.2,4.2,0,0,0,1.7,1.331C596.066,138.059,596.359,138.089,596.355,138.11Z" transform="translate(-557.74 -102.435)" fill="#455a64"/>
          <path id="Path_2084" data-name="Path 2084" d="M583.116,110.771a2.381,2.381,0,0,1-.507.075,5.286,5.286,0,0,1-1.4-.037,2.665,2.665,0,0,1-1.77-1.072,5.753,5.753,0,0,1-.463-1.144,1.885,1.885,0,0,0-.776-.956,5.485,5.485,0,0,0-2.382-.623,4.146,4.146,0,0,1-1.984-.619,1.964,1.964,0,0,1-.813-1.137,1.229,1.229,0,0,1-.027-.385.379.379,0,0,1,.027-.133,2.488,2.488,0,0,0,.065.5,1.961,1.961,0,0,0,.817,1.052,4.135,4.135,0,0,0,1.93.558,5.517,5.517,0,0,1,2.464.636,2.042,2.042,0,0,1,.841,1.041,5.862,5.862,0,0,0,.439,1.116,2.569,2.569,0,0,0,1.654,1.038,5.965,5.965,0,0,0,1.361.092A3.466,3.466,0,0,1,583.116,110.771Z" transform="translate(-544.841 -92.269)" fill="#455a64"/>
          <path id="Path_2085" data-name="Path 2085" d="M583.461,107.189a1.041,1.041,0,0,1-.4.058,2.44,2.44,0,0,1-1.7-.681,3.234,3.234,0,0,1-.528-.7,2.917,2.917,0,0,0-1.239-1.419,4.084,4.084,0,0,0-1.906-.167,5.837,5.837,0,0,1-1.627,0,2.042,2.042,0,0,1-1.021-.449,1.145,1.145,0,0,1-.2-.225q-.056-.087-.051-.092a2.975,2.975,0,0,0,.3.262,2.093,2.093,0,0,0,.98.381,6.127,6.127,0,0,0,1.593-.024,4.084,4.084,0,0,1,1.991.167,1.967,1.967,0,0,1,.813.681,9.057,9.057,0,0,1,.5.824,3.19,3.19,0,0,0,.49.681,2.34,2.34,0,0,0,.585.432,2.529,2.529,0,0,0,1.021.286A2.444,2.444,0,0,1,583.461,107.189Z" transform="translate(-546.031 -91.458)" fill="#455a64"/>
          <path id="Path_2086" data-name="Path 2086" d="M602.079,139.222c-.017,0,.092-.228.218-.647a5.856,5.856,0,0,0,.228-1.824,5.606,5.606,0,0,0-.725-2.6c-.248-.446-.626-.844-.936-1.331a2.41,2.41,0,0,1-.34-.82,1.859,1.859,0,0,1,.075-.919,10.538,10.538,0,0,0,.606-1.623,2.39,2.39,0,0,0-.443-1.477,6.86,6.86,0,0,1-.364-.681,2.441,2.441,0,0,1-.194-.711,6.3,6.3,0,0,1,.037-1.3,3.434,3.434,0,0,0-.16-1.807,1.645,1.645,0,0,0-.4-.534l.041.02a.678.678,0,0,1,.109.078,1.256,1.256,0,0,1,.313.405,3.37,3.37,0,0,1,.225,1.848,6.389,6.389,0,0,0-.017,1.269,3.225,3.225,0,0,0,.551,1.321,4.475,4.475,0,0,1,.371.725,1.7,1.7,0,0,1,.1.858,9.866,9.866,0,0,1-.609,1.651,1.7,1.7,0,0,0-.071.834,2.247,2.247,0,0,0,.317.762c.293.47.681.875.929,1.341a5.618,5.618,0,0,1,.711,2.678,5.507,5.507,0,0,1-.286,1.848,3.991,3.991,0,0,1-.2.47A.675.675,0,0,1,602.079,139.222Z" transform="translate(-562.45 -104.282)" fill="#455a64"/>
          <path id="Path_2087" data-name="Path 2087" d="M561.3,267.317s-2.29-21.727-2.423-29.756,3.611-15.952,3.611-15.952L577.143,221s2.9,8.148,2.951,11.571c.1,6.65-1.766,13.215-1.552,18.491l.49,16.268" transform="translate(-535.529 -168.962)" fill="#263238"/>
          <path id="Path_2088" data-name="Path 2088" d="M583.22,278.6a1.93,1.93,0,0,1-.238.18l-.133.1c-.044.037-.092.088-.143.136a2.181,2.181,0,0,0-.34.364,8.09,8.09,0,0,0-1.147,2.91,9.8,9.8,0,0,1-.742,2.066,3.744,3.744,0,0,1-.34.514c-.065.082-.122.17-.191.248l-.225.225a3.649,3.649,0,0,1-1.1.708c-.82.361-1.746.531-2.593.956a4.085,4.085,0,0,0-1.882,2.144c-.412.922-.664,1.889-1.021,2.794a5.065,5.065,0,0,1-1.532,2.321,4.2,4.2,0,0,1-2.4.752c-.79.048-1.521.024-2.175.122a3.437,3.437,0,0,0-1.641.619,2.288,2.288,0,0,0-.762,1.075,1.61,1.61,0,0,0-.058.834c.037.191.092.282.078.286a.865.865,0,0,1-.116-.279,1.583,1.583,0,0,1,.027-.865,2.332,2.332,0,0,1,.766-1.13A3.51,3.51,0,0,1,567,295c.681-.109,1.406-.092,2.185-.146a4.084,4.084,0,0,0,2.311-.735,4.924,4.924,0,0,0,1.467-2.253c.34-.9.589-1.862,1.021-2.8a4.26,4.26,0,0,1,1.964-2.226c.881-.436,1.807-.6,2.607-.95a3.5,3.5,0,0,0,1.062-.681l.218-.214c.068-.075.123-.16.184-.235a3.606,3.606,0,0,0,.316-.494,9.847,9.847,0,0,0,.752-2.042A7.8,7.8,0,0,1,582.3,279.3a2.146,2.146,0,0,1,.34-.361c.054-.048.1-.1.15-.133l.14-.089A1.894,1.894,0,0,1,583.22,278.6Z" transform="translate(-539.224 -206.958)" fill="#fafafa"/>
          <path id="Path_2089" data-name="Path 2089" d="M580.656,249.06a1.786,1.786,0,0,1,.02.293,3.6,3.6,0,0,1-.1.83,5.378,5.378,0,0,1-1.657,2.563,9.822,9.822,0,0,1-1.7,1.256c-.657.391-1.382.762-2.124,1.181a11.108,11.108,0,0,0-2.175,1.528,8.4,8.4,0,0,0-1.647,2.314,21.33,21.33,0,0,1-1.426,2.515,6.011,6.011,0,0,1-.929,1.021,5.876,5.876,0,0,1-1.13.739,13.705,13.705,0,0,1-2.277.875,20.75,20.75,0,0,0-2,.681,7.821,7.821,0,0,0-1.525.817,4.767,4.767,0,0,0-.956.881,4.565,4.565,0,0,0-.575.956,1.773,1.773,0,0,1,.1-.276,3.383,3.383,0,0,1,.425-.722,4.66,4.66,0,0,1,.953-.919,7.735,7.735,0,0,1,1.535-.851,18.126,18.126,0,0,1,2-.681,13.81,13.81,0,0,0,2.246-.878,5.749,5.749,0,0,0,1.072-.722,5.866,5.866,0,0,0,.9-1,21.619,21.619,0,0,0,1.412-2.5,8.509,8.509,0,0,1,1.685-2.355,11.143,11.143,0,0,1,2.212-1.545c.749-.419,1.474-.783,2.131-1.164a9.869,9.869,0,0,0,1.7-1.218,5.425,5.425,0,0,0,1.674-2.488A5.267,5.267,0,0,0,580.656,249.06Z" transform="translate(-536.572 -187.472)" fill="#fafafa"/>
          <path id="Path_2090" data-name="Path 2090" d="M558.821,238.454a.138.138,0,0,0-.031-.065,1.46,1.46,0,0,1-.031-1.021,3.371,3.371,0,0,1,2.154-1.988c.6-.208,1.29-.34,2-.521a3.744,3.744,0,0,0,2.774-2.062,10.476,10.476,0,0,0,.507-1.222,13.305,13.305,0,0,1,1.079-2.61,4.166,4.166,0,0,1,2.219-1.726,20.335,20.335,0,0,1,2.546-.647,8.433,8.433,0,0,0,2.216-.756,4.64,4.64,0,0,0,1.5-1.361,5.062,5.062,0,0,0,.953-2.757,7.83,7.83,0,0,0-.071-1.089,3.591,3.591,0,0,1,.143,1.089,5.026,5.026,0,0,1-.919,2.828,4.734,4.734,0,0,1-1.528,1.406,8.488,8.488,0,0,1-2.25.786,20.69,20.69,0,0,0-2.522.65,4,4,0,0,0-2.13,1.657,13.348,13.348,0,0,0-1.065,2.573,10.528,10.528,0,0,1-.521,1.242,3.89,3.89,0,0,1-2.886,2.127c-.725.184-1.406.3-2,.5a3.3,3.3,0,0,0-2.131,1.889,1.666,1.666,0,0,0-.065.79A2.83,2.83,0,0,1,558.821,238.454Z" transform="translate(-535.406 -168.718)" fill="#fafafa"/>
          <path id="Path_2091" data-name="Path 2091" d="M583,327a.97.97,0,0,1,.024.214,2.264,2.264,0,0,1-.061.616,3.5,3.5,0,0,1-1.286,1.838,5.725,5.725,0,0,1-1.361.8,17.9,17.9,0,0,1-1.7.585,14.007,14.007,0,0,0-1.841.681,5.315,5.315,0,0,0-1.674,1.222c-.5.521-.926,1.089-1.4,1.589a6.4,6.4,0,0,1-1.569,1.229,6.888,6.888,0,0,1-3.237.841,6.408,6.408,0,0,1-2.229-.371A4.081,4.081,0,0,1,566.1,336a.107.107,0,1,1,.013-.031,5.462,5.462,0,0,0,.572.211,6.716,6.716,0,0,0,2.2.31,6.878,6.878,0,0,0,3.158-.858,6.307,6.307,0,0,0,1.521-1.2c.466-.493.892-1.062,1.4-1.593a5.446,5.446,0,0,1,1.729-1.256,13.8,13.8,0,0,1,1.868-.681,17.194,17.194,0,0,0,1.7-.565,5.708,5.708,0,0,0,1.327-.766,3.508,3.508,0,0,0,1.3-1.76A4.025,4.025,0,0,0,583,327Z" transform="translate(-540.174 -238.886)" fill="#fafafa"/>
          <path id="Path_2092" data-name="Path 2092" d="M582.874,161.384l-2.835.068a4.635,4.635,0,0,1-.64,1.61,48.446,48.446,0,0,1-4.666-11.844c.068-.221.146-.466.245-.739a3.141,3.141,0,0,0-.037-1.246c-.078-.493-.218-1.157-.259-1.463-.126-.936-.276-1.082-.6-.977-.446.143.184,2.631-.18,2.682-.194.031-.436-.824-.5-1.521a11.307,11.307,0,0,0-.616-2.992c-.34-.211-.633.123-.548.817s.2,2.8-.174,2.832-.681-3.536-.681-3.536.058-.776-.371-.756c-.773.034-.17,3.791-.1,4.145.048.248-.34.293-.388.024s-.221-3.563-1.021-3.536c-.6.02.466,3.1.129,3.808s-.572-2.42-1.15-2.382c-.214,0-.371.058.02,1.831a40,40,0,0,0,1.361,4.156c.912,4.918,4.915,20.652,11.187,17.769,3.509-1.61,4.935-8.754,4.935-8.754Z" transform="translate(-541.72 -118.378)" fill="#b78876"/>
          <path id="Path_2093" data-name="Path 2093" d="M575.4,148.678a.194.194,0,0,0,.082,0,.18.18,0,0,0,.129-.2c0-.211-.041-.517-.088-.916a13.1,13.1,0,0,1-.157-1.45c0-.286,0-.592.02-.916a3.167,3.167,0,0,1,.051-.49c.027-.153.129-.34.248-.31h.02a.275.275,0,0,1,.255.231,1.334,1.334,0,0,1,.044.456h0a27.536,27.536,0,0,0,.364,2.842c.027.126.055.255.1.385a1.874,1.874,0,0,0,.072.194.6.6,0,0,0,.058.1.184.184,0,0,0,.143.089.255.255,0,0,0,.214-.18,1.052,1.052,0,0,0,.065-.208,3.233,3.233,0,0,0,.054-.415,12.429,12.429,0,0,0-.024-1.7,3.925,3.925,0,0,1-.034-.851.47.47,0,0,1,.167-.317.184.184,0,0,1,.146-.017.34.34,0,0,1,.082.034.109.109,0,0,1,.038.051,4.263,4.263,0,0,1,.235.854c.061.3.112.609.16.919s.092.626.129.939a6.584,6.584,0,0,0,.157.967,3.311,3.311,0,0,0,.153.48.876.876,0,0,0,.14.242.2.2,0,0,0,.2.075.218.218,0,0,0,.14-.153,1.679,1.679,0,0,0,.037-.531c0-.17-.02-.34-.034-.5-.024-.286-.051-.572-.061-.851a2.868,2.868,0,0,1,0-.408.649.649,0,0,1,.041-.177.153.153,0,0,1,.034-.051h.044c.225-.092.3.221.361.473s.085.538.14.807c.089.538.2,1.069.266,1.579a1.83,1.83,0,0,1-.031.732l-.238.732v.044a39.337,39.337,0,0,0,1.521,4.921c.538,1.453,1.079,2.723,1.552,3.744s.9,1.817,1.195,2.359l.34.609a1.448,1.448,0,0,0,.133.2,1.464,1.464,0,0,0-.105-.221l-.34-.623c-.276-.548-.681-1.361-1.143-2.382s-.984-2.287-1.511-3.744a40.422,40.422,0,0,1-1.487-4.9v.044l.238-.722a1.977,1.977,0,0,0,.041-.813c-.061-.531-.174-1.048-.262-1.589-.051-.265-.085-.541-.139-.817a1.61,1.61,0,0,0-.14-.422.409.409,0,0,0-.187-.191.419.419,0,0,0-.269,0H578.7a.3.3,0,0,0-.078.044.34.34,0,0,0-.085.123.831.831,0,0,0-.058.231,3.037,3.037,0,0,0,0,.439c0,.289.037.575.061.861,0,.167.027.34.034.493a1.6,1.6,0,0,1-.024.456c0,.034-.024.031,0,.048h0a.054.054,0,0,1-.02-.02.72.72,0,0,1-.105-.184,3.123,3.123,0,0,1-.143-.453,6.411,6.411,0,0,1-.153-.943q-.056-.48-.133-.95c-.051-.313-.1-.623-.163-.926a4.233,4.233,0,0,0-.259-.909.307.307,0,0,0-.106-.119.522.522,0,0,0-.126-.054.371.371,0,0,0-.289.041.636.636,0,0,0-.252.442,1.626,1.626,0,0,0,0,.466c.017.146.031.289.041.432a12.356,12.356,0,0,1,.031,1.678,3.023,3.023,0,0,1-.048.395.892.892,0,0,1-.051.177.23.23,0,0,1-.038.065c0,.027-.024,0-.02.041.017-.034,0,0,0-.044a.467.467,0,0,1-.041-.071,1.741,1.741,0,0,1-.065-.174c-.037-.119-.068-.245-.1-.371a28.331,28.331,0,0,1-.385-2.818h0a1.454,1.454,0,0,0-.054-.507.513.513,0,0,0-.133-.228.34.34,0,0,0-.252-.092h.02a.293.293,0,0,0-.293.14.736.736,0,0,0-.105.265,3.208,3.208,0,0,0-.044.51v.922a12.181,12.181,0,0,0,.187,1.457c.058.395.1.7.122.909a.16.16,0,0,1-.1.177C575.43,148.671,575.4,148.675,575.4,148.678Z" transform="translate(-546.348 -118.353)" fill="#a36957"/>
          <path id="Path_2094" data-name="Path 2094" d="M497.178,208.226a7.31,7.31,0,0,0-1.971.225c-1.756.463-4.792,2.3-4.918,4.574h2.2s-1.235,2.627-.871,2.382a28.3,28.3,0,0,0,2.815-2.536Z" transform="translate(-490.29 -160.534)" fill="#b78876"/>
          <ellipse id="Ellipse_397" data-name="Ellipse 397" cx="0.088" cy="4.094" rx="0.088" ry="4.094" transform="matrix(0.996, -0.087, 0.087, 0.996, 36.14, 0.015)" fill="#263238"/>
          <ellipse id="Ellipse_398" data-name="Ellipse 398" cx="5.861" cy="0.088" rx="5.861" ry="0.088" transform="translate(39.739 9.598) rotate(-54.57)" fill="#263238"/>
          <ellipse id="Ellipse_399" data-name="Ellipse 399" cx="3.979" cy="0.088" rx="3.979" ry="0.088" transform="translate(42.821 11.427) rotate(-11.61)" fill="#263238"/>
        </g>
        <g id="Folder" transform="translate(29.355 64.055)">
          <path id="Path_2095" data-name="Path 2095" d="M272.614,226.459l-12.048,61.874-1.566,8.1,80.32-.388c3.6-.017,6.807-3.22,7.961-7.974l14.247-58.416c.881-3.611-1.052-7.365-3.788-7.365l-81.314.085C274.656,222.372,273.07,224.046,272.614,226.459Z" transform="translate(-229.589 -210.691)" fill="#69bef7"/>
          <g id="Group_2761" data-name="Group 2761" transform="translate(29.411 11.599)" opacity="0.5">
            <path id="Path_2096" data-name="Path 2096" d="M272.614,226.459l-12.048,61.874-1.566,8.1,80.32-.388c3.6-.017,6.807-3.22,7.961-7.974l7.361-30.182,6.886-28.233c.881-3.611-1.052-7.365-3.788-7.365l-81.314.085C274.656,222.372,273.07,224.046,272.614,226.459Z" transform="translate(-259 -222.29)" fill="#7595f0"/>
          </g>
          <path id="Path_2097" data-name="Path 2097" d="M274.619,261.652,266.11,193.1a5.388,5.388,0,0,0-5.228-4.894l-18.654.061a5.081,5.081,0,0,0-3.686,1.634l-8.849,9.414-51.878.272a5.514,5.514,0,0,0-5.187,6.388l7.9,63.354a5.386,5.386,0,0,0,5.221,4.891l90.411-.177c10.071.208,11.03-2.764,11.03-2.764C275.646,273.846,274.619,261.652,274.619,261.652Z" transform="translate(-172.582 -188.21)" fill="#7595f0"/>
          <g id="Group_2762" data-name="Group 2762" transform="translate(36.518 37.88)">
            <path id="Path_2098" data-name="Path 2098" d="M220.083,322.768l-3.049,3.274L193.55,304.914l3.049-3.274Z" transform="translate(-193.55 -300.915)" fill="#fff"/>
            <path id="Path_2099" data-name="Path 2099" d="M217.611,299.51l3.369,3.032-21.251,22.82-3.369-3.032Z" transform="translate(-195.404 -299.51)" fill="#fff"/>
          </g>
        </g>
        <g id="Speech_Bubble" data-name="Speech Bubble" transform="translate(133.364 19.776)">
          <path id="Path_2100" data-name="Path 2100" d="M504.876,85.772a.636.636,0,0,1-.385-.558l-.136-3.158a.633.633,0,0,1,.779-.647,1.971,1.971,0,0,0,1.535-.3,1.776,1.776,0,0,0,.793-1.164,1.817,1.817,0,0,0-.381-1.361,2.042,2.042,0,0,0-1.341-.807,2.382,2.382,0,0,0-2.416,1.7.636.636,0,1,1-1.225-.34,3.659,3.659,0,0,1,3.788-2.644,3.278,3.278,0,0,1,2.209,1.3,2.94,2.94,0,0,1-.721,4.353,3.322,3.322,0,0,1-1.722.562l.105,2.437a.636.636,0,0,1-.885.613Z" transform="translate(-493.94 -70.227)" fill="#7595f0"/>
          <circle id="Ellipse_400" data-name="Ellipse 400" cx="0.521" cy="0.521" r="0.521" transform="translate(10.792 16.39) rotate(-3.93)" fill="#7595f0"/>
          <path id="Path_2101" data-name="Path 2101" d="M478.188,69.2a1.365,1.365,0,0,0,.031-.208l.068-.609a7.171,7.171,0,0,1,.163-.977,6.244,6.244,0,0,1,.14-.616l.211-.681a11.7,11.7,0,0,1,1.7-3.243,11.412,11.412,0,0,1,10.554-4.452c.262.024.517.1.779.14a5.3,5.3,0,0,1,.783.191,10.811,10.811,0,0,1,3.029,1.372,11.388,11.388,0,0,1,4.5,5.65,11.114,11.114,0,0,1,.681,3.883,10.908,10.908,0,0,1-.711,4l-.153.388-.02.051.02.048,2.5,5.762.143-.163L497.5,77.769l-.065-.024-.051.048a11.222,11.222,0,0,1-14,1.351,11.663,11.663,0,0,1-2.869-2.672,11.293,11.293,0,0,1-2.178-5.217l-.105-.885-.017-.65v-.4a.735.735,0,0,0,0-.136.746.746,0,0,0,0,.136v1.052l.088.892a12.4,12.4,0,0,0,.582,2.4,12.535,12.535,0,0,0,1.559,2.893,11.75,11.75,0,0,0,2.89,2.723,11.313,11.313,0,0,0,14.189-1.31L497.41,78l5.105,1.967.255.1-.112-.262-2.5-5.765v.1l.157-.4a11.144,11.144,0,0,0,.728-4.084,11.343,11.343,0,0,0-.681-3.968,11.571,11.571,0,0,0-4.6-5.755,10.994,10.994,0,0,0-3.1-1.4,5.449,5.449,0,0,0-.8-.191c-.266-.044-.528-.116-.793-.14a11.415,11.415,0,0,0-12.354,7.862l-.2.681a6.355,6.355,0,0,0-.129.623,6.758,6.758,0,0,0-.143.987l-.044.613A1.375,1.375,0,0,0,478.188,69.2Z" transform="translate(-478.187 -58.106)" fill="#263238"/>
        </g>
      </g>
    </g>
  </g>
</svg>
