<svg xmlns="http://www.w3.org/2000/svg" xmlns:xlink="http://www.w3.org/1999/xlink" width="131.096" height="127.6" viewBox="0 0 131.096 127.6">
  <defs>
    <linearGradient id="linear-gradient" x1="0.5" x2="0.5" y2="1" gradientUnits="objectBoundingBox">
      <stop offset="0" stop-color="#7595f0"/>
      <stop offset="1" stop-color="#394c81"/>
    </linearGradient>
  </defs>
  <g id="Group_2710" data-name="Group 2710" transform="translate(-141 -236.4)">
    <g id="Group_552" data-name="Group 552" transform="translate(-16 -137.6)">
      <g id="Group_497" data-name="Group 497" transform="translate(157 374)">
        <path id="Path_1265" data-name="Path 1265" d="M31.9,0C49.518,0,63.8,15.065,63.8,33.648S49.518,67.3,31.9,67.3,0,52.231,0,33.648,14.282,0,31.9,0Z" transform="translate(67.296 0)" fill="#3598db" opacity="0.37"/>
        <path id="Path_1264" data-name="Path 1264" d="M59.867,0A59.867,59.867,0,1,1,0,59.867,59.867,59.867,0,0,1,59.867,0Z" transform="translate(0 7.866)" fill="#7595f0" opacity="0.22"/>
      </g>
      <path id="ic_star_24px" d="M47,70.715,74.81,87.5,67.43,55.865,92,34.58,59.645,31.835,47,2,34.355,31.835,2,34.58,26.57,55.865,19.19,87.5Z" transform="translate(172 393.1)" fill="url(#linear-gradient)"/>
    </g>
    <path id="ic_star_half_24px" d="M38.842,15.337,25.6,14.195,20.421,2,15.245,14.213,2,15.337,12.058,24.05,9.037,37l11.384-6.871L31.805,37l-3-12.95ZM20.421,26.684V9.553l3.15,7.442,8.068.7L25.524,23l1.842,7.884Z" transform="translate(182 285)" fill="#fff"/>
  </g>
</svg>
