<svg xmlns="http://www.w3.org/2000/svg" width="16.067" height="16.067" viewBox="0 0 16.067 16.067">
    <g id="teamwork" transform="translate(0.001 -0.005)">
        <g id="Group_2750" data-name="Group 2750" transform="translate(6.139 0.005)">
            <g id="Group_2749" data-name="Group 2749" transform="translate(0 0)">
                <circle id="Ellipse_245" data-name="Ellipse 245" cx="2" cy="2" r="2" transform="translate(-0.14 0)" fill="#7595f0"/>
            </g>
        </g>
        <g id="Group_2752" data-name="Group 2752" transform="translate(5.02 5.026)">
            <g id="Group_2751" data-name="Group 2751">
                <path id="Path_1758" data-name="Path 1758" d="M166.021,164.459l-.456-3.551a1,1,0,0,0-1-.9h-.55a.506.506,0,0,0-.355.147l-.649.649-.649-.649a.506.506,0,0,0-.355-.147h-.549a1,1,0,0,0-1,.891L160,164.46a.5.5,0,0,0,.5.565h.542l.42,5.121a1,1,0,0,0,1,.9h1.1a1,1,0,0,0,1-.913l.419-5.112h.541a.5.5,0,0,0,.377-.171A.5.5,0,0,0,166.021,164.459Z" transform="translate(-160 -160.005)" fill="#7595f0"/>
            </g>
        </g>
        <g id="Group_2754" data-name="Group 2754" transform="translate(10.745 0.005)">
            <g id="Group_2753" data-name="Group 2753" transform="translate(0 0)">
                <circle id="Ellipse_246" data-name="Ellipse 246" cx="2" cy="2" r="2" transform="translate(0.255 0)" fill="#7595f0"/>
            </g>
        </g>
        <g id="Group_2756" data-name="Group 2756" transform="translate(1.004 0.005)">
            <g id="Group_2755" data-name="Group 2755">
                <path id="Path_1759" data-name="Path 1759" d="M34.007,0a2.008,2.008,0,1,0,2.008,2.008A2.01,2.01,0,0,0,34.007,0Z" transform="translate(-31.999 -0.005)" fill="#7595f0"/>
            </g>
        </g>
        <g id="Group_2758" data-name="Group 2758" transform="translate(11.173 5.026)">
            <g id="Group_2757" data-name="Group 2757">
                <path id="Path_1760" data-name="Path 1760" d="M360.952,164.459l-.456-3.55a1,1,0,0,0-1-.9h-.55a.506.506,0,0,0-.355.147l-.649.649-.649-.649a.5.5,0,0,0-.354-.147h-.55a.957.957,0,0,0-.178.033,1.954,1.954,0,0,1,.261.755l.455,3.539a1.5,1.5,0,0,1-.367,1.191,1.455,1.455,0,0,1-.5.353l.333,3.267a1,1,0,0,0,1,.9h1.1a1,1,0,0,0,1-.913l.418-4.108h.541a.5.5,0,0,0,.377-.171A.5.5,0,0,0,360.952,164.459Z" transform="translate(-356.063 -160.005)" fill="#7595f0"/>
            </g>
        </g>
        <g id="Group_2760" data-name="Group 2760" transform="translate(-0.001 5.026)">
            <g id="Group_2759" data-name="Group 2759" transform="translate(0)">
                <path id="Path_1761" data-name="Path 1761" d="M4.392,165.518a1.5,1.5,0,0,1-.364-1.184l.457-3.566a1.857,1.857,0,0,1,.25-.731A.946.946,0,0,0,4.566,160h-.55a.506.506,0,0,0-.355.147l-.649.649-.649-.649A.505.505,0,0,0,2.009,160h-.55a1,1,0,0,0-1,.891L0,164.46a.5.5,0,0,0,.5.565h.542l.42,4.117a1,1,0,0,0,1,.9h1.1a1,1,0,0,0,1-.913l.333-3.258A1.506,1.506,0,0,1,4.392,165.518Z" transform="translate(0.001 -160.005)" fill="#7595f0"/>
            </g>
        </g>
    </g>
</svg>
