<svg xmlns="http://www.w3.org/2000/svg" xmlns:xlink="http://www.w3.org/1999/xlink" width="17" height="17" viewBox="0 0 17 17">
  <defs>
    <linearGradient id="linear-gradient" x1="0.5" x2="0.5" y2="1" gradientUnits="objectBoundingBox">
      <stop offset="0" stop-color="#69bef7"/>
      <stop offset="1" stop-color="#7595f0"/>
    </linearGradient>
  </defs>
  <path id="ic_message_24px" d="M17.3,2H3.7A1.7,1.7,0,0,0,2.008,3.7L2,19l3.4-3.4H17.3A1.7,1.7,0,0,0,19,13.9V3.7A1.7,1.7,0,0,0,17.3,2ZM15.6,12.2H5.4V10.5H15.6Zm0-2.55H5.4V7.95H15.6Zm0-2.55H5.4V5.4H15.6Z" transform="translate(-2 -2)" fill="url(#linear-gradient)"/>
</svg>
