<svg xmlns="http://www.w3.org/2000/svg" width="17" height="17" viewBox="0 0 17 17">
  <path id="ic_message_24px" d="M17.3,2H3.7A1.7,1.7,0,0,0,2.008,3.7L2,19l3.4-3.4H17.3A1.7,1.7,0,0,0,19,13.9V3.7A1.7,1.7,0,0,0,17.3,2ZM15.6,12.2H5.4V10.5H15.6Zm0-2.55H5.4V7.95H15.6Zm0-2.55H5.4V5.4H15.6Z" transform="translate(-2 -2)" fill="#a5a5a5"/>
</svg>
